@startuml

Actor Postman
participant HttpServlet
participant PersonServlet << (C,#ADD1B2) >>
participant JsonUtil << (C,#ADD1B2) >>
participant PersonService << (C,#ADD1B2) >>

Activate HttpServlet
Postman -> HttpServlet : Send the JSON String from body to  HttpServlet as Request
note right of Postman : Send through localhost:8080/person
HttpServlet -> PersonServlet : Passes the JSON String in req object.
Deactivate HttpServlet

Activate PersonServlet
PersonServlet -> PersonServlet : Create objects for StringBuilder,BufferedReader and line


group try (Use BufferedReader and read the String from JSON and store to line)

PersonServlet -> PersonServlet : Get the String from JSON and append to personJSON of type StringBuilder


Activate JsonUtil
PersonServlet -> JsonUtil : invoke the deSerialize method and pass the personJson String with Class type.
JsonUtil -> PersonServlet : Get the Person Object and store to personGot.
Deactivate JsonUtil

activate PersonService
PersonServlet -> PersonService : Invoke the delete method and pass the personId from personGot
Deactivate PersonService

Deactivate
end


@enduml

